public class Lab6
{
    public static void main(String[] args)
    {
        int i=0,n=0,sign=1,j=1;
        n = 10;
        for (i = 1; i <= n;i++)
        {
            System.out.println(j*sign);
            sign = sign*-1;
            j=j+(i*i);
        }
    }
}